{
  "users": [
    {
      "id": 1,
      "name": "test!!!!",
      "email": "edit@test.com",
      "phoneNumber": "055555555"
    },
    {
      "id": 2,
      "name": "test!!!!",
      "email": "edit@test.com",
      "phoneNumber": "055555555"
    },
    {
      "id": 3,
      "name": "test test2",
      "email": "create@test.com",
      "phoneNumber": "055555555"
    },
    {
      "id": 4,
      "name": "test test2",
      "email": "create@test.com",
      "phoneNumber": "055555555"
    },
    {
      "id": 5,
      "name": "test test2",
      "email": "create@test.com",
      "phoneNumber": "055555555"
    },
    {
      "id": 6,
      "name": "test test2",
      "email": "create@test.com",
      "phoneNumber": "055555555"
    },
    {
      "id": 7,
      "name": "test test2",
      "email": "create@test.com",
      "phoneNumber": "055555555"
    },
    {
      "id": 8,
      "name": "test!!",
      "email": "edit@test.com",
      "phoneNumber": "0544673233"
    },
    {
      "id": 11,
      "name": "test test2",
      "email": "create@test.com",
      "phoneNumber": "055555555"
    },
    {
      "id": 13,
      "name": "test!!",
      "email": "edit@test.com",
      "phoneNumber": "0544673233"
    },
    {
      "id": 14,
      "name": "test test2",
      "email": "create@test.com",
      "phoneNumber": "055555555"
    },
    {
      "id": 15,
      "name": "test test2",
      "email": "create@test.com",
      "phoneNumber": "055555555"
    },
    {
      "id": 16,
      "name": "test test2",
      "email": "create@test.com",
      "phoneNumber": "055555555"
    },
    {
      "id": 17,
      "name": "test test2",
      "email": "create@test.com",
      "phoneNumber": "055555555"
    },
    {
      "id": 18,
      "name": "test test2",
      "email": "create@test.com",
      "phoneNumber": "055555555"
    },
    {
      "id": 19,
      "name": "test test2",
      "email": "create@test.com",
      "phoneNumber": "055555555"
    },
    {
      "id": 20,
      "name": "test test2",
      "email": "create@test.com",
      "phoneNumber": "055555555"
    },
    {
      "id": 21,
      "name": "test test2",
      "email": "create@test.com",
      "phoneNumber": "055555555"
    },
    {
      "id": 22,
      "name": "test test2",
      "email": "create@test.com",
      "phoneNumber": "055555555"
    }
  ]
}